id,name_el,name_en
100,Αθήνα - Κέντρο,Athens - Center
101,Αθήνα - Βόρεια Προάστια,Athens - North
102,Αθήνα - Νότια Προάστια,Athens - South
103,Αθήνα - Δυτικά Προάστια,Athens - West
104,Αθήνα - Ανατολικά Προάστια,Athens - East
105,Πειραιάς,Piraeus
106,Προάστια Πειραιά,Piraeus suburbs
107,Υπόλοιπο Αττικής,Rest of Attica
108,Θεσσαλονίκη - Δήμος,Thessaloniki
109,Θεσσαλονίκη - Περιφ/κοί δήμοι,Thessaloniki - Suburbs
110,Θεσσαλονίκη - Υπόλ. Νομού,Thessaloniki - Rest of Prefecture
150,Αιτωλία & Ακαρνανία,Aetolia & Acarnania
151,Αργολίδα,Argolis
152,Αρκαδία,Arcadia
153,Ν. Άρτας,Arta Prefecture
154,Αχαΐα,Achaia
155,Βοιωτία,Boeotia
156,Γρεβενά,Grevena
157,Ν. Δράμας,Drama Prefecture
158,Δωδεκάνησα,Dodecanese
159,Έβρος,Evros
160,Εύβοια,Evia
161,Ευρυτανία,Evrytania
162,Ζάκυνθος,Zante
163,Ηλεία,Ilia
164,Ημαθία,Imathia
165,Ν. Ηρακλείου,Heraklion Prefecture
166,Θεσπρωτία,Thesprotia
167,Ν. Ιωαννίνων,Ioannina Prefecture
168,Ν. Καβάλας,Kavala Prefecture
169,Ν. Καρδίτσας,Karditsa Prefecture
170,Ν. Καστοριάς,Kastoria Prefecture
171,Ν. Κέρκυρας,Corfu Prefecture
172,Ν. Κεφαλονιάς,Kefallinia Prefecture
173,Ν. Κιλκίς,Kilkis Prefecture
174,Ν. Κοζάνης,Kozani Prefecture
175,Κορινθία,Corinthia
176,Κυκλάδες,Cyclades
177,Λακωνία,Lakonia
178,Ν. Λάρισας,Larissa Prefecture
179,Ν. Λασιθίου,Lasithi Prefecture
180,Ν. Λέσβου,Lesvos Prefecture
181,Ν. Λευκάδας,Lefkada Prefecture
182,Μαγνησία,Magnesia
183,Μεσσηνία,Messinia
184,Ν. Ξάνθης,Xanthi Prefecture
185,Πέλλα,Pella
186,Ν. Πιερίας,Pieria Prefecture
187,Ν. Πρέβεζας,Preveza Prefecture
188,Ν. Ρεθύμνου,Rethymno Prefecture
189,Ν. Ροδόπης,Rodopi Prefecture
190,Ν. Σάμου,Samos Prefecture
191,Ν. Σέρρες,Serres Prefecture
192,Ν. Τρικάλων,Trikala Prefecture
193,Φθιώτιδα,Phthiotis
194,Ν. Φλώρινας,Florina Prefecture
195,Φωκίδα,Fokida
196,Χαλκιδική,Chalkidiki
197,Ν. Χανίων,Chania Prefecture
198,Ν. Χίου,Chios Prefecture
301,Κύπρος,Cyprus
106001,Νησιά Αργοσαρωνικού,Argosaronikos islands
125000,Σποράδες,Sporades
