id,name_el,name_en,district_id
2011,Γουδή,Goudi,100
2015,Ιλίσια,Ilisia,100
2022,Κυψέλη,Kipseli,100
2025,Λεωφ. Πατησίων - Λεωφ. Αχαρνών,Patision - Acharnon,100
2033,Νέος Κόσμος,Neos Kosmos,100
2036,Πατήσια,Patisia,100
2038,Πετράλωνα,Petralona,100
2099,Κέντρο,Kentro,100
2100,Άγιος Στέφανος,Agios Stefanos,101
2101,Αγία Παρασκευή,Agia Paraskevi,101
2102,Άνοιξη,Anoixi,101
2103,Βριλήσσια,Vrilissia,101
2104,Διόνυσος,Dionisos,101
2105,Δροσιά,Drosia,101
2106,Εκάλη,Ekali,101
2107,Ηράκλειο,Iraklio,101
2108,Κηφισιά,Kifisia,101
2109,Κρυονέρι,Krioneri,101
2110,Λυκόβρυση,Lykovrisi,101
2111,Μαρούσι,Marousi,101
2112,Μελίσσια,Melissia,101
2113,Νέα Ερυθραία,Nea Erithraia,101
2114,Νέα Πεντέλη,Nea Penteli,101
2115,Νέο Ψυχικό,Neo Psichiko,101
2116,Παπάγου,Papagou,101
2117,Πεντέλη,Penteli,101
2118,Πεύκη,Pefki,101
2119,Ροδόπολη,Rodopoli,101
2120,Σταμάτα,Stamata,101
2121,Φιλοθέη,Filothei,101
2122,Χαλάνδρι,Chalandri,101
2123,Χολαργός,Cholargos,101
2124,Παλαιό Ψυχικό,Paleo Psichiko,101
2200,Άγιος Δημήτριος,Agios Dimitrios,102
2201,Άλιμος,Alimos,102
2202,Αργυρούπολη,Argyroupoli,102
2203,Βάρη- Βάρκιζα,Vari - Varkiza,102
2205,Βούλα,Voula,102
2206,Βουλιαγμένη,Vouliagmeni,102
2207,Βύρωνας,Vironas,102
2208,Γλυφάδα,Glyfada,102
2209,Δάφνη,Dafni,102
2210,Ελληνικό,Elliniko,102
2211,Ζωγράφου,Zografou,102
2212,Ηλιούπολη,Ilioupoli,102
2214,Καισαριανή,Kaisariani,102
2215,Καλλιθέα,Kalithea,102
2216,Νέα Σμύρνη,Nea Smyrni,102
2217,Παλαιό Φάληρο,Palaio Faliro,102
2218,Υμηττός,Imittos,102
2300,Αγία Βαρβάρα,Agia Varvara,103
2301,Αγιοι Ανάργυροι,Agioi Anargiroi,103
2302,Αιγάλεω,Aigaleo,103
2303,Άνω Λιόσια,Ano Liosia,107
2304,Αχαρνές,Acharnes,103
2305,Γαλάτσι,Galatsi,103
2306,Ζεφύρι,Zefiri,107
2308,Ίλιον,Ilion,103
2309,Καματερό,Kamatero,103
2310,Μεταμόρφωση,Metamorfosi,103
2311,Νέα Ιωνία,Nea Ionia,103
2312,Νέα Φιλαδέλφεια,Nea Philadelfia,103
2313,Νέα Χαλκηδόνα,Nea Chalkidona,103
2314,Περιστέρι,Peristeri,103
2315,Πετρούπολη,Petroupoli,103
2316,Χαϊδάρι,Chaidari,103
2400,Ανθούσα,Anthoisa,104
2401,Αρτέμιδα (Λούτσα),Artemida (Loutsa),104
2402,Γέρακας,Gerakas,104
2403,Γλυκά Νερά,Glika Nera,104
2404,Κορωπί,Koropi,104
2405,Μαραθώνας,Marathonas,104
2406,Μαρκόπουλο,Markopoulo,107
2407,Νέα Μάκρη,Nea Makri,104
2408,Παιανία,Paiania,104
2409,Παλλήνη,Pallini,104
2410,Πικέρμι,Pikermi,107
2411,Ραφήνα,Rafina,107
2412,Σπάτα,Spata,104
2505,Πειραιάς,Piraeus,105
2600,Άγιος Ιωάννης Ρέντης,Agios Ioannis Rentis,106
2601,Αγκίστρι,Agkistri,106001
2602,Αίγινα,Aegina,106001
2603,Αμπελάκια,Abelakia,106001
2604,Αντικύθηρα,Antikythira,177
2605,Δραπετσώνα,Drapetsona,106
2606,Κερατσίνι,Keratsini,106
2607,Κορυδαλλός,Koridallos,106
2608,Κύθηρα,Kythira,177
2609,Μέθανα,Methana,106001
2610,Μοσχάτο,Moschato,106
2611,Νίκαια,Nikaia,106
2612,Πέραμα,Perama,106
2613,Πόρος,Poros,106001
2614,Σαλαμίνα,Salamina,106001
2615,Σπέτσες,Spetses,106001
2616,Ταύρος,Tavros,106
2617,Τροιζήνα,Trizina,106001
2618,Ύδρα,Hydra,106001
2701,Άγιος Κωνσταντίνος,Agios Constantinos,107
2702,Αλεποχώρι,Alepoxori,107
2703,Ανάβυσσος,Anavissos,107
2704,Ασπρόπυργος,Aspropirgos,107
2705,Αυλώνα,Avlona,107
2706,Αφίδνες,Afidnes,107
2707,Βαρνάβας,Varnavas,104
2709,Βίλια,Vilia,107
2710,Βραυρώνα,Vravrona,107
2711,Γραμματικό,Grammatiko,104
2712,Ελευσίνα,Elefsina,107
2713,Ερυθρές,Erithres,107
2715,Κάλαμος,Kalamos,107
2716,Καλύβια Θορικού,Kalivia Thorikou,107
2717,Κ. Καπανδριτίου,Com. Kapandriti,107
2718,Σούλι,Souli,166
2719,Κερατέα,Keratea,107
2721,Κουβαράς,Kouvaras,107
2723,Λαύριο,Lavrio,107
2724,Μαγούλα,Magoula,107
2725,Κ. Μαλακάσας,Com. Malakasa,107
2726,Μαλεσίνα,Malesina,193
2727,Μάνδρα,Mandra,107
2728,Μαρκόπουλο Ωρωπού,Markopoulo Oropou,107
2730,Μέγαρα,Megara,107
2732,Νέα Πέραμος (Μεγάλο Πεύκο),Nea Peramos (Megalo Pefko),107
2733,Κ. Νέων Παλατίων,Com. Nea Palatia,107
2734,Οινόη,Oinoi,107
2735,Παλαιά Φώκαια,Palaia Fokaia,107
2736,Πολυδένδρι,Polidendri,107
2739,Σαρωνίδα,Saronida,107
2740,Κ. Σκάλας Ωρωπού,Com. Skalas Oropou,107
2742,Σούνιο,Sounio,107
2743,Συκάμινο,Sikamino,107
2745,Φυλή,Fili,107
2747,Ωρωπός,Oropos,107
2800,40 Εκκλησιές,40 Ekklisies,108
2802,Ανάληψη,Analipsi,108
2803,Άνω Πόλη,Ano Poli,108
2804,Άνω Τούμπα,Ano Toumpa,108
2805,Βαρδάρης,Vardaris,108
2806,Βούλγαρη - Άγιος Ελευθέριος,Voulgari - Agios Eleftherios,108
2807,Διοικητήριο,Dioikitirio,108
2808,Ευαγγελίστρια,Evaggelistria,108
2809,Ροτόντα,Rotonta,108
2810,Κάτω Τούμπα,Kato Toumpa,108
2812,Λευκός Πύργος,Lefkos Pirgos,108
2813,Λαδάδικα,Ladadika,108
2814,Μαλακοπή,Malakopi,108
2815,Μαρτίου,Martiou,108
2816,Μπότσαρη,Mpotsari,108
2818,Νέα Παραλία,Nea Paralia,108
2819,Ντεπώ,Ntepo,108
2820,Παναγία Φανερωμένη,Panagia Faneromeni,108
2821,Σταθμός ΟΣΕ,Stathmos OSE,108
2822,Φάληρο,Faliro,108
2823,Χαριλάου,Charilaou,108
2824,Παπάφη,Papafi,108
2825,Ιπποκράτειο,Ippokratio,108
2826,Άγιος Δημήτριος,Agios Dimitrios,108
2827,Λαχανόκηποι,Lahanokipoi,108
2899,Υπόλοιπο κέντρου Θεσσαλονίκης,Ipoloipo kentrou Thessalonikis,108
2900,Δ. Αγίου Παύλου,Μ. Agiou Pavlou,109
2901,Αμπελόκηποι,Ampelokipoi,109
2902,Ελευθέριο-Κορδελιό,Eleftherio-Kordelio,109
2903,Ευκαρπία,Efkarpia,109
2904,Εύοσμος,Evosmos,109
2905,Θερμαϊκός,Thermaikos,109
2906,Θέρμη,Thermi,109
2907,Καλαμαριά,Kalamaria,109
2908,Μενεμένη,Menemeni,109
2909,Νεάπολη,Neapoli,109
2910,Πανόραμα,Panorama,109
2911,Πεύκα,Pefka,109
2912,Πολίχνη,Polichni,109
2913,Πυλαία,Pylea,109
2914,Σταυρούπολη,Stavroupoli,109
2915,Συκιές,Sikies,109
2916,Τριανδρία,Triandria,108
2917,Χορτιάτης,Chortiatis,109
2918,Ωραιόκαστρο,Oreokastro,109
3000,Άγιος Αθανάσιος,Agios Athanasios,110
3001,Άγιος Γεώργιος,Agios Georgios,110
3002,Αξιός,Axios,109
3003,Απολλώνια,Apollonia,110
3004,Αρέθουσα,Arethousa,110
3005,Άσσηρος,Assiros,110
3006,Βασιλικά,Vasilika,109
3007,Βερτίσκος,Vertiskos,110
3008,Εγνατία,Egnatia,110
3009,Επανομή,Epanomi,109
3010,Εχέδωρος,Echedoros,109
3011,Καλλιθέα,Kallithea,109
3012,Καλλίνδοια,Kallindoia,110
3013,Κορώνεια,Koroneia,110
3014,Κουφάλια,Koufalia,110
3015,Λαγκαδάς,Lagkadas,110
3016,Λαχανάς,Lachanas,110
3017,Μάδυτος,Maditos,110
3018,Μηχανιώνα,Michaniona,109
3019,Μίκρα,Mikra,109
3020,Μυγδονία,Migdonia,109
3021,Ρεντίνα,Rentina,110
3022,Σοχός,Sochos,110
3023,Χαλάστρα,Chalastra,109
3024,Χαλκηδόνα,Chalkidona,110
3200,Αγγελόκαστρο,Aggelokastro,150
3201,Αγρίνιο,Agrinio,150
3202,Αιτωλικό,Aitoliko,150
3203,Αλυζία,Alizia,150
3204,Αμφιλοχία,Amfilochia,150
3205,Ανακτόριο,Anaktorio,150
3206,Αντίρριο,Antirrio,150
3207,Αποδοτία,Apodotia,150
3208,Αράκυνθος,Arakinthos,150
3209,Αστακός,Astakos,150
3210,Θέρμος,Thermos,150
3211,Θεστιές,Thesties,150
3212,Ίναχος,Inachos,150
3213,Κεκροπία (Παλαίρου),Kekropia (Palairou),150
3214,Μακρυνεία,Makrineia,150
3215,Μεδεώνας,Medeonas,150
3216,Μενίδι,Menidi,150
3217,Ιερά Πόλη Μεσολογγίου,Iera Poli Messologiou,150
3218,Ναύπακτος,Navpaktos,150
3219,Νεάπολη,Νeapoli,150
3220,Οινιάδες,Oiniades,150
3221,Παναιτωλικό,Panaitoliko,150
3222,Παραβόλα,Paravola,150
3223,Παρακαμπυλία,Parakampilia,150
3224,Πλάτανος,Platanos,150
3225,Πυλλήνη,Pillini,150
3226,Στράτος,Stratos,150
3227,Φυτείες,Fiteies,150
3228,Χάλκεια,Chalkeia,150
3229,Αλέα,Alea,151
3230,Άργος,Argos,151
3231,Ασίνη,Asini,151
3232,Ασκληπιείο,Asklipieio,151
3233,Αχλαδόκαμπος,Achladokampos,151
3234,Επίδαυρος,Epidavros,151
3235,Ερμιόνη,Ermioni,151
3236,Κουτσοπόδι,Koutsopodi,151
3237,Κρανίδι,Kranidi,151
3238,Λέρνα,Lerna,151
3239,Λύρκεια,Lirkeia,151
3240,Μιδέα,Midea,151
3241,Μυκήνες,Mycenae,151
3242,Ναύπλιο,Nafplio,151
3243,Νέα Κίος,Nea Kios,151
3244,Νέα Τίρυνθα,Nea Tirintha,151
3245,Απόλλωνας,Apollonas,152
3246,Βαλτέτσι,Valtetsi,152
3247,Βόρεια Κυνουρία,North Kinouria,152
3248,Βυτίνα,Vitina,152
3249,Γορτυνία,Gortinia,152
3250,Δημητσάνα,Dimitsana,152
3251,Ηραία,Iraia,152
3252,Κλειτορία,Kleitoria,152
3253,Κοντοβάζαινα,Kontovazaina,152
3254,Κορύθιο,Korithio,152
3255,Κοσμάς,Kosmas,152
3256,Λαγκαδιά,Lagkadia,152
3257,Λεβίδι,Levidi,152
3258,Λεωνίδιο,Leonidio,152
3259,Μαντίνεια,Mantineia,152
3260,Μεγαλόπολη,Megalopoli,152
3261,Σκυρίτιδα,Skiritida,152
3262,Τεγέα,Tegea,152
3263,Τρικολώνιο,Trikolonio,152
3264,Τρίπολη,Tripoli,152
3265,Τρόπαια,Tropaia,152
3266,Φαλαισία,Falaisia,152
3267,Φάλανθος,Falanthos,152
3268,Άγναντα,Agnanta,153
3269,Αθαμάνιο,Athamanio,153
3270,Αμβρακία,Amvrakia,153
3271,Άραχθος,Arachthos,153
3272,Άρτα,Arta,153
3273,Βλαχέρνα,Vlacherna,153
3274,Γεώργιος Καραϊσκάκης,Georgios Karaiskakis,153
3275,Ηρακλείας,Iraklias,153
3276,Θεοδώριανα,Theodoriana,153
3277,Κομμένο,Kommeno,153
3278,Κομποτιό,Kompotio,153
3279,Μελισσουργοί,Melissourgoi,153
3280,Ξηροβούνι,Xirovouni,153
3281,Πέτα,Peta,153
3282,Τετραφυλία,Tetrafilia,153
3283,Φιλοθέη,Filothei,153
3284,Αιγείρα,Aigeira,154
3285,Αίγιο,Aigio,154
3286,Ακράτα,Akrata,154
3287,Αροανία,Aroania,154
3288,Βραχναίικα,Vrachneika,154
3289,Διακοπτό,Diakopto,154
3290,Δυτικής Αχαΐας,Dytikis Achaias,154
3291,Ερίνεο,Erineo,154
3292,Καλάβρυτα,Kalavrita,154
3293,Καλέντζι,Kalentzi,154
3294,Λάρισσος,Larissos,154
3295,Λεόντιο,Leontio,154
3296,Λευκάσιο,Lefkasio,154
3297,Μεσσατίδα,Messatida,154
3298,Μόβρη,Movri,154
3299,Πάος,Paos,154
3300,Παραλίας,Paralias,154
3301,Πάτρα,Patra,154
3302,Ρίο,Rio,154
3303,Αιγιάλεια,Egialia,154
3304,Τριταία,Tritaia,154
3305,Φαρές,Fares,154
3306,Ωλένια,Olenia,154
3307,Ακραίφνια,Akraifnia,155
3308,Αλίαρτος,Aliartos,155
3309,Αντικύρα,Antikira,155
3310,Αράχωβα,Arachova,155
3311,Βαγιές,Vagies,155
3312,Δαύλεια,Davleia,155
3313,Δερβενοχώρια,Dervenochoria,155
3314,Δίστομο,Distomo,155
3315,Θεσπιές,Thespies,155
3316,Θήβα,Thiva,155
3317,Θίσβη,Thisvi,155
3318,Κορώνειας,Κoronias,155
3319,Κυριάκι,Kiriaki,155
3320,Λιβαδειά,Livadeia,155
3321,Οινόφυτα,Inofita,155
3322,Ορχομενός,Orchomenos,155
3323,Πλαταιές,Plateon,155
3324,Σχηματάρι,Schimatari,155
3325,Τανάγρα,Tanagra,155
3326,Χαιρώνεια,Chaironeia,155
3327,Αβδέλλα,Avdella,156
3328,Βέντζι,Ventzi,156
3329,Γοργιάνη,Gorgiani,156
3330,Γρεβενά,Grevena,156
3331,Δεσκάτη,Deskati,156
3332,Δοτσικό,Dotsiko,156
3333,Ηρακλεώτες,Irakleotes,156
3334,Θεόδωρος Ζιάκας,Theodoros Ziakas,156
3335,Κοσμάς Αιτωλός,Kosmas Aitolos,156
3336,Μεσολούρι,Mesolouri,156
3337,Περιβόλι,Perivoli,156
3338,Σαμαρίνα,Samarina,156
3339,Σμίξη,Smixi,156
3340,Φιλιππαίοι,Filippaioi,156
3341,Χασιές,Chasies,156
3342,Δοξάτο,Doxato,157
3343,Δράμα,Drama,157
3344,Καλαμπάκι,Kalampaki,157
3345,Κάτω Νευροκόπι,Kato Nevrokopi,157
3346,Νικηφόρος,Nikiforos,157
3347,Παρανέστι,Paranesti,157
3348,Προσοτσάνη,Prosotsani,157
3349,Σιδηρόνερο,Sidironero,157
3350,Σιταγροί,Sitagroi,157
3351,Αγαθονήσι,Agathonisi,158
3353,Αστυπάλαια,Astypalea,158
3360,Κάλυμνος,Kalimnos,158
3363,Κάσος,Kasos,158
3365,Λειψοί,Leipsoi,158
3366,Λέρος,Leros,158
3368,Μεγίστη,Megisti,158
3369,Νίσυρος,Nisiros,158
3372,Πάτμος,Patmos,158
3375,Σύμη,Simi,158
3376,Τήλος,Tilos,158
3377,Χάλκη,Chalki,158
3378,Αλεξανδρούπολη,Alexandroupoli,159
3379,Βύσσα,Vissa,159
3380,Διδυμότειχο,Didimoticho,159
3381,Κυπρίνος,Kiprinos,159
3382,Μεταξάδες,Metaxades,159
3383,Ορεστιάδα,Orestiada,159
3384,Ορφέας,Orfeas,159
3385,Σαμοθράκη,Samothraki,159
3386,Σουφλί,Soufli,159
3387,Τραϊανούπολη,Traianoupoli,159
3388,Τρίγωνο,Trigono,159
3389,Τυχερό,Tichero,159
3390,Φέρες,Feres,159
3391,Αιδηψός,Aidipsos,160
3392,Αμάρυνθος,Amarinthos,160
3393,Ανθηδώνος,Anthidonos,160
3394,Αρτεμίσιο,Artemisio,160
3395,Αυλίδα,Avlida,160
3396,Αυλώνα,Avlona,160
3397,Δίρφυς,Dirfis,160
3398,Δύστος,Distos,160
3399,Λίμνη,Limni,160
3400,Ερέτρια,Eretria,160
3401,Ιστιαία,Istiaia,160
3402,Κάρυστος,Karistos,160
3403,Καφήρα,Kafira,160
3404,Κηρέα,Kirea,160
3405,Κονίστρες,Konistres,160
3406,Κύμη,Kimi,160
3407,Ληλάντιο,Lilantio,160
3408,Λιχάδα,Lichada,160
3409,Μαρμάρι,Marmari,160
3410,Μεσσαπία,Messapia,160
3411,Νέα Αρτάκη,Nea Artaki,160
3412,Νηλέα,Nilea,160
3413,Σκύρος,Skiros,125000
3414,Στύρα,Stira,160
3415,Ταμύνες,Tamines,160
3416,Χαλκίδα,Chalkida,160
3417,Ωρεοί,Oreoi,160
3418,Άγραφα,Agrafa,161
3419,Απεράντιο,Aperantio,161
3420,Ασπροπόταμος,Αspropotamos,161
3421,Βίνιανη,Viniani,161
3422,Δομνίστα,Domnista,161
3423,Καρπενήσι,Karpenisi,161
3424,Κτημένι,Ktimeni,161
3425,Ποταμιάς,Potamias,161
3426,Προυσός,Prousos,161
3427,Φουρνά,Fourna,161
3428,Φραγκίστα,Fragkista,161
3429,Αλυκές,Alikes,162
3430,Αρκάδι,Arkadi,162
3431,Αρτεμίσιο,Artemisio,162
3432,Ελάτιο,Elatio,162
3433,Λαγανάς,Laganas,162
3434,Περιοχη χώρας,Main town area,162
3435,Αλίφειρα,Alifeira,163
3436,Αμαλιάδα,Amaliada,163
3437,Ανδραβίδα,Andravida,163
3438,Ανδρίτσαινα,Andritsaina,163
3439,Αρχαία Ολυμπία,Archaia Olimpia,163
3440,Βαρθολομιό,Vartholomio,163
3441,Βουπρασία,Vouprasia,163
3442,Βώλακας,Volakas,163
3443,Γαστούνη,Gastouni,163
3444,Ζαχάρω,Zacharo,163
3445,Ιαρδανός,Iardanos,163
3446,Κάστρο Κυλλήνης,Kastro Killinis,163
3447,Λάμπεια,Lampeia,163
3448,Λασιώνα,Lasiona,163
3449,Λεχαινά,Lechaina,163
3450,Πηνεία,Pineia,163
3451,Πύργος,Pirgos,163
3452,Σκιλούντα,Skilounta,163
3453,Τραγανό,Tragano,163
3454,Φιγαλεία,Figaleia,163
3455,Φολόη,Foloi,163
3456,Ωλένη,Oleni,163
3457,Αλεξάνδρεια,Alexandreia,164
3458,Ανθεμιά,Anthemia,164
3459,Αντιγονίδες,Antigonides,164
3460,Απόστολος Παύλος,Apostolos Pavlos,164
3461,Βεργίνα,Vergina,164
3462,Βέροια,Veroia,164
3463,Δοβρά,Dovra,164
3464,Ειρηνούπολη,Eirinoupoli,164
3465,Μακεδονίδα,Makedonida,164
3466,Μελίκη,Meliki,164
3467,Νάουσα,Naousa,164
3468,Πλαταιές,Plataies,164
3469,Αγία Βαρβάρα,Αgia Varvara,165
3470,Αρκαλοχώρι,Arkalochori,165
3471,Αρχάνες,Archanes,165
3472,Αστερούσια,Asterousia,165
3473,Βιαννός,Viannos,165
3474,Γάζι,Gazi,165
3475,Γοργολαϊνη,Gorgolaini,165
3476,Γορτύνα,Gortina,165
3477,Γούβες,Gouves,165
3478,Επισκοπή,Episkopi,165
3479,Ζαρός,Zaros,165
3480,Θραψανό,Thrapsano,165
3481,Καστέλλι,Kastelli,165
3482,Κοφίνας,Kofinas,165
3483,Κρουσώνας,Krousonas,165
3484,Μάλλια,Mallia,165
3485,Μοίρες,Moires,165
3486,Νέα Αλικαρνασσός,Nea Alikarnassos,165
3487,Νίκος Καζαντζάκης,Nikos Kazantzakis,165
3489,Ηράκλειο Κρήτης,Heraclion Cretes,165
3490,Ρουβάς,Rouvas,165
3491,Τέμενος,Temenos,165
3492,Τύλισος,Tilisos,165
3493,Τυμπάκι,Timpaki,165
3494,Χερσόνησος,Chersonisos,165
3495,Αχέροντας,Acherontas,166
3496,Ηγουμενίτσα,Igoumenitsa,166
3497,Μαργαρίτι,Margariti,166
3498,Παραμυθιά,Paramithia,166
3499,Παραπόταμος,Parapotamos,166
3500,Πέρδικα,Perdika,166
3501,Σαγιάδα,Sagiada,166
3503,Σύβοτα,Sivota,166
3504,Φιλιάτες,Filiates,166
3505,Άγιος Δημήτριος,Agios Dimitrios,167
3506,Αετομηλίτσα,Aetomilitsa,167
3507,Ανατολή,Anatoli,167
3508,Ανατολικό Ζαγόρι,East Zagori,167
3509,Άνω Καλαμάς,Ano Kalamas,167
3510,Άνω Παγώνι,Ano Pagoni,167
3511,Βαθύπεδο,Vathipedo,167
3512,Βοβούσα,Vovousa,167
3513,Δελβινάκι,Delvinaki,167
3514,Δερβίζιανα,Derviziana,167
3515,Δίστρατο,Distrato,167
3516,Δωδώνη,Dodoni,167
3517,Εγνατίας,Εgnatias,167
3518,Εκάλη,Ekali,167
3519,Ευρυμένοι,Evrimenoi,167
3520,Ζίτσα,Zitsa,167
3521,Ιωάννινα,Ioannina,167
3522,Καλαρίτες,Kalarites,167
3523,Καλπάκιο,Kalpakio,167
3524,Κατσανοχώρια,Katsanochoria,167
3525,Κεντρικό Ζαγόρι,Kentriko Zagori,167
3526,Κόνιτσα,Konitsa,167
3527,Λάβδανη,Lavdani,167
3528,Μαστροχώρια,Mastrochoria,167
3529,Ματσούκι,Matsouki,167
3530,Μέτσοβο,Metsovo,167
3531,Μηλέα,Milea,167
3532,Μολοσσοί,Molossoi,167
3533,Μπιζάνιο,Mpizanio,167
3534,Νήσος ιωαννίννων,Nisos ioanninnon,167
3535,Παμβωτίδα,Pamvotida,167
3536,Πάπιγκο,Papigko,167
3537,Πασσαρώνα,Passarona,167
3538,Πέραμα,Perama,167
3539,Πράμαντα,Pramanta,167
3540,Πωγωνιανή,Pogoniani,167
3541,Σέλλοι,Selloi,167
3542,Συρράκο,Sirrako,167
3543,Τζουμέρκα,Tzoumerka,167
3544,Τύμφη,Timfi,167
3545,Φούρκα,Fourka,167
3546,Ελευθερούπολη,Eleftheroupoli,168
3547,Ελευθερές,Eleitheres,168
3548,Θάσος,Thasos,168
3549,Καβάλα,Kavala,168
3550,Κεραμωτή,Keramoti,168
3551,Ορεινό,Oreino,168
3552,Ορφανό,Orfano,168
3553,Παγγαίο,Paggaio,168
3554,Πιερέα,Pierea,168
3555,Φίλιπποι,Filippoi,168
3556,Χρυσούπολη,Chrisoupoli,168
3557,Αθαμανών,Αthamanon,169
3558,Αργιθέα,Argithea,169
3559,Άρνη,Arni,169
3560,Αχελώος,Acheloos,169
3561,Ιθώμη,Ithomi,169
3562,Ίταμος,Itamos,169
3563,Καλλίφωνο,Kallifono,169
3564,Κάμπος,Kampos,169
3565,Καρδίτσα,Karditsa,169
3566,Μενελαίδα,Menelaida,169
3567,Μητρόπολη,Mitropoli,169
3568,Μουζάκι,Mouzaki,169
3569,Νεβρόπολη Αγράφων,Nevropoli Agrafon,169
3570,Παλαμάς,Palamas,169
3571,Πάμισος,Pamisos,169
3572,Πλαστήρας,Plastiras,169
3573,Ρεντίνα,Rentina,169
3574,Σελλάνα,Sellana,169
3575,Σοφάδες,Sofades,169
3576,Ταμάσι,Tamasi,169
3577,Φύλλο,Fillo,169
3578,Αγία Τριάδα,Agia Triada,170
3579,Άγιοι Ανάργυροι,Agioi Anargiroi,170
3580,Ακρίτες,Akrites,170
3581,Αλιάκμωνας,Aliakmonas,170
3582,Άρρενες,Arrenes,170
3583,Βίτσι,Vitsi,170
3584,Γράμμος,Grammos,170
3585,Ιών Δραγούμης,Ion Dragoumis,170
3586,Καστοριά,Kastoria,170
3587,Καστράκι,Kastraki,170
3588,Κλεισούρα,Kleisoura,170
3589,Κορεστεία,Koresteia,170
3590,Μακέδνα,Makedna,170
3591,Νεστόρι,Nestori,170
3592,Ορέστιδα,Orestida,170
3606,Παξοί,Paxoi,171
3612,Ιθάκη,Ithaki,172
3618,Αξιούπολη,Axioupoli,173
3619,Γαλλικός,Gallikos,173
3620,Γουμένισσα,Goumenissa,173
3621,Δοϊράνη,Doirani,173
3622,Ευρωπός,Evropos,173
3623,Κιλκίς,Kilkis,173
3624,Κρούσσοι,Kroussoi,173
3625,Λιβαδιά,Livadia,173
3626,Μουριές,Mouries,173
3627,Πικρολίμνη,Pikrolimni,173
3628,Πολύκαστρο,Polikastro,173
3629,Χέρσο,Cherso,173
3630,Αγία Παρασκευή,Agia Paraskevi,174
3631,Αιανή,Aiani,174
3632,Άσκιο,Askio,174
3633,Βελβεντός,Velventos,174
3634,Βέρμιο,Vermio,174
3635,Βλάστη,Vlasti,174
3636,Δημήτριος Υψηλάντης,Dimitrios Ipsilantis,174
3637,Ελίμεια,Elimeia,174
3638,Ελλήσποντος,Ellispontos,174
3639,Καμβούνια,Kamvounia,174
3640,Κοζάνη,Kozani,174
3641,Λιβαδερό,Livadero,174
3642,Μουρίκιο,Mourikio,174
3643,Νεάπολης,Νeapolis,174
3644,Πεντάλοφο,Pentalofo,174
3645,Πτολεμαϊδα,Ptolemaida,174
3646,Σέρβια,Servia,174
3647,Σιάτιστα,Siatista,174
3648,Τσοτίλι,Tsotili,174
3649,Άγιοι Θεόδωροι,Agioi Theodoroi,175
3650,Άσσος-Λεχαίο,Assos-Lechaio,175
3651,Βέλο,Velo,175
3652,Βόχα,Vocha,175
3653,Ευρωστίνη,Evrostini,175
3654,Κόρινθος,Korinthos,175
3655,Λουτράκι-Περαχώρα,Loutraki-Perachora,175
3656,Νεμέα,Nemea,175
3657,Ξυλόκαστρο,Xilokastro,175
3658,Σαρωνικός,Saronikos,175
3659,Σικυώνα,Sikiona,175
3660,Σολύγεια,Soligeia,175
3661,Στυμφαλία,Stimfalia,175
3662,Τενέα,Tenea,175
3663,Φενεός,Feneos,175
3664,Αμοργός,Amorgos,176
3665,Ανάφη,Anafi,176
3667,Αντίπαρος,Antiparos,176
3669,Δονούσα,Donousa,176
3670,Νάξος - Δρυμαλία,Naxos - Drimalia,176
3673,Ηρακλειά,Iraklias,176
3674,Ίος,Ios,176
3675,Κέα,Kea,176
3676,Κίμωλος,Kimolos,176
3678,Κουφονήσια,Koufonisia,176
3679,Κύθνος,Kythnos,176
3680,Μήλος,Milos,176
3681,Μύκονος,Mykonos,176
3682,Νάξος,Naxos,176
3685,Πάρος,Paros,176
3688,Σέριφος,Serifos,176
3689,Σίκινος,Sikinos,176
3690,Σίφνος,Sifnos,176
3691,Σχοινούσα,Schoinousa,176
3694,Φολέγανδρος,Folegandros,176
3695,Ανατολική Μάνη,East Mani,177
3696,Ασωπός,Asopos,177
3697,Βοϊων,Voion,177
3698,Γέρονθρες,Geronthres,177
3699,Γύθειο,Githeio,177
3700,Ελαφόνησος,Elafonisos,177
3701,Έλος,Elos,177
3702,Ζάρακας,Zarakas,177
3703,Θεραπνή,Therapni,177
3704,Καρυές,Karies,177
3705,Κροκεές,Krokees,177
3706,Μολάοι,Molaoi,177
3707,Μονεμβασιά,Monemvasia,177
3708,Μυστράς,Mistras,177
3709,Νιάτα,Niata,177
3710,Οινούντας,Oinountas,177
3711,Οίτυλος,Oitilos,177
3712,Πελλάνα,Pellana,177
3713,Σκάλα,Skala,177
3714,Σμήνος,Sminos,177
3715,Σπάρτη,Sparti,177
3716,Φαρίδα,Farida,177
3717,Αγιά,Agia,178
3718,Αμπελάκια,Ampelakia,178
3719,Αμπελώνας,Ampelonas,178
3720,Αντιχασιά,Antichasia,178
3721,Αρμένιο,Armenio,178
3722,Βερδικούσσα,Verdikoussa,178
3723,Γιάννουλη,Giannouli,178
3724,Γόννοι,Gonnoi,178
3725,Ελασσόνα,Elassona,178
3726,Ενιππέας,Enippeas,178
3727,Ευρύμενο,Evrimeno,178
3728,Καρυά,Karia,178
3729,Κάτω Όλυμπος,Kato Olimpos,178
3730,Κιλελέρ,Kileler,178
3731,Κοιλάδα,Koilada,178
3732,Κραννώνας,Krannonas,178
3733,Λακέρεια,Lakereia,178
3734,Λάρισα,Larisa,178
3735,Λιβάδι,Livadi,178
3736,Μακρυχώρι,Makrichori,178
3737,Μελίβοια,Melivoia,178
3738,Ναρθάκι,Narthaki,178
3739,Νέσσωνας,Nessonas,178
3740,Νίκαια,Nikaia,178
3741,Όλυμπος,Olimpos,178
3742,Πλατύκαμπος,Platikampos,178
3743,Πολυδάμαντας,Polidamantas,178
3744,Ποταμιά,Potamia,178
3745,Σαραντάπορο,Sarantaporo,178
3746,Τύρναβος,Tirnavos,178
3747,Φάρσαλα,Farsala,178
3748,Άγιος Νικόλαος,Agios Nikolaos,179
3749,Ιεράπετρα,Ierapetra,179
3750,Ίτανος,Itanos,179
3751,Λεύκη,Lefki,179
3752,Μακρύς Γιαλός,Makris Gialos,179
3753,Νεάπολη,Neapoli,179
3754,Οροπέδιο Λασιθίου,Oropedio Lasithiou,179
3755,Σητεία,Siteia,179
3756,Λέσβος - Αγία Παρασκευή,Lesvos - Agia Paraskevi,180
3757,Λέσβος - Αγιάσος,Lesvos - Agiasos,180
3758,Άγιος Ευστράτιος,Agios Efstratios,180
3759,Λήμνος - Ατσική,Limnos - Atsiki,180
3760,Λέσβος - Γέρας,Lesvos - Geras,180
3761,Λέσβος - Ερεσός,Lesvos - Eresos,180
3762,Λέσβος - Ευεργέτουλα,Lesvos - Evergetoula,180
3763,Λέσβος - Καλλονή,Lesvos - Kalloni,180
3764,Λέσβος - Λουτρόπολη Θερμής,Lesvos - Loutropoli Thermis,180
3765,Λέσβος - Μανταμάδος,Lesvos - Mantamados,180
3766,Λέσβος - Μήθυμνα,Lesvos - Mithimna,180
3767,Λήμνος - Μούδρος,Limnos - Moudros,180
3768,Λήμνος - Μύρινα,Limnos - Mirina,180
3769,Λέσβος - Μυτιλήνη,Lesvos - Mitilini,180
3770,Λήμνος - Νέα Κούταλη,Limnos - Nea Koutali,180
3771,Λέσβος - Πέτρα,Lesvos - Petra,180
3772,Λέσβος - Πλωμάρι,Lesvos - Plomari,180
3773,Λέσβος - Πολιχνίτος,Lesvos - Polichnitos,180
3776,Κάλαμος,Kalamos,181
3778,Καστός,Kastos,181
3780,Μεγανήσι,Meganisi,181
3782,Αγριά,Agria,182
3783,Αισωνία,Aisonia,182
3784,Αλμυρός,Almiros,182
3785,Αλόννησος,Alonnisos,125000
3786,Ανάβρα,Anavra,182
3787,Αργαλαστή,Argalasti,182
3788,Αρτέμιδα,Artemida,182
3789,Αφέτες,Afetes,182
3790,Βόλος,Volos,182
3791,Ζαγορά,Zagora,182
3792,Ιωλκός,Iolkos,182
3793,Κάρλα,Karla,182
3794,Κεραμίδι,Keramidi,182
3795,Μακρινίτσα,Makrinitsa,182
3796,Μηλιές,Milies,182
3797,Μούρεσι,Mouresi,182
3798,Νέα Αγχίαλος,Nea Agchialos,182
3799,Νέα Ιωνία Βόλου,Nea Ionia Volou,182
3800,Πορταριά,Portaria,182
3801,Πτελεός,Pteleos,182
3802,Σηπιάδα,Sipiada,182
3803,Σκιάθος,Skiathos,125000
3804,Σκόπελος,Skopelos,125000
3805,Σούρπη,Sourpi,182
3806,Τρικέρι,Trikeri,182
3807,Φερών,Feron,182
3808,Αβία,Avia,183
3809,Αετού,Αetou,183
3810,Αίπεια,Epia,183
3811,Ανδανία,Andania,183
3812,Ανδρούσα,Androusa,183
3813,Άριο,Ario,183
3814,Αριστομένης,Aristomenis,183
3815,Αρφαρά,Arfara,183
3816,Αυλώνος,Avlona,183
3817,Βουφράδα,Voufrada,183
3818,Γαργαλιάνοι,Gargalianoi,183
3819,Δώριο,Dorio,183
3820,Είρα,Eira,183
3821,Θουρία,Thouria,183
3822,Ιθώμης,Ithomi,183
3823,Καλαμάτα,Kalamata,183
3824,Κορώνη,Koroni,183
3825,Κυπαρισσία,Kiparissia,183
3826,Λεύκτρος,Lefktros,183
3827,Μεθώνη,Methoni,183
3828,Μελιγαλά,Meligala,183
3829,Μεσσήνη,Messini,183
3830,Νέστορας,Nestoras,183
3831,Οιχαλία,Oichalia,183
3832,Παπαφλέσσας,Papaflessas,183
3833,Πεταλίδι,Petalidi,183
3834,Πύλος,Pilos,183
3835,Τρίκορφο,Trikorfo,183
3836,Τριπύλα,Tripila,183
3837,Φιλιατρά,Filiatra,183
3838,Χιλιοχώρια,Chiliochoria,183
3839,Άβδηρα,Avdira,184
3840,Βιστωνίδα,Vistonida,184
3841,Θερμά,Therma,184
3842,Κοτύλη,Kotili,184
3843,Μύκη,Miki,184
3844,Ξάνθη,Xanthi,184
3845,Σάτρες,Satres,184
3846,Σέλερο,Selero,184
3847,Σταυρούπολη,Stavroupoli,184
3848,Τοπείρο,Topeiro,184
3849,Αριδαία,Aridaia,185
3850,Βεγορίτιδα,Vegoritida,185
3851,Γιαννιτσά,Giannitsa,185
3852,Έδεσσα,Edessa,185
3853,Εξαπλάτανος,Exaplatanos,185
3854,Κρύα Βρύση,Kria Vrisi,185
3855,Κύρρος,Kirros,185
3856,Μέγας Αλέξανδρος,Megas Alexandros,185
3857,Μενηίδα,Meniida,185
3858,Πέλλα,Pella,185
3859,Σκύδρα,Skidra,185
3860,Αιγίνιο,Aiginio,186
3861,Ανατολικος Όλυμπος,Easts Olimpos,186
3862,Δίον,Dion,186
3863,Ελαφίνα,Elafina,186
3864,Κατερίνη,Katerini,186
3865,Κολινδρός,Kolindros,186
3866,Κορινός,Korinos,186
3867,Λιτόχωρο,Litochoro,186
3868,Μεθώνη,Methoni,186
3869,Παραλία,Paralia,186
3870,Πέτρα,Petra,186
3871,Πιερία,Pieria,186
3872,Πύδνα,Pidna,186
3873,Ανώγειο,Anogeio,187
3874,Ζάλογγο,Zaloggo,187
3875,Θεσπρωτικό,Thesprotiko,187
3876,Κρανέα,Kranea,187
3877,Λούρος,Louros,187
3878,Πάργα,Parga,187
3879,Πρέβεζα,Preveza,187
3880,Φανάρι,Fanari,187
3881,Φιλιππιάδα,Filippiada,187
3882,Ανώγεια,Anogeia,188
3883,Αρκάδι,Arkadi,188
3884,Γεροπόταμος,Geropotamos,188
3885,Κουλουκώνας,Kouloukonas,188
3886,Κουρήτες,Kourites,188
3887,Λάμπη,Lampi,188
3888,Λάππα,Lappa,188
3889,Νικηφόρος Φωκάς,Nikiforos Fokas,188
3890,Ρέθυμνο,Rethimno,188
3891,Σίβριτος,Sivritos,188
3892,Φοινίκας,Foinikas,188
3893,Αίγειρος,Aigeiros,189
3894,Αμαξάδες,Amaxades,189
3895,Αρριανά,Arriana,189
3896,Ίασμος,Iasmos,189
3897,Κέχρος,Kechros,189
3898,Κομοτηνή,Komotini,189
3899,Μαρώνεια,Maroneia,189
3900,Νέο Σιδηροχώρι,Neo Sidirochori,189
3901,Οργάνη,Organi,189
3902,Σάπες,Sapes,189
3903,Σώστης,Sostis,189
3904,Φιλλύρα,Fillira,189
3912,Φούρνοι Κορσοί,Fourni Korsoi,190
3913,Άγκιστρο,Agkistro,191
3914,Αλιστράτη,Alistrati,191
3915,Αμφίπολη,Amfipoli,191
3916,Άνω Βροντή,Ano Vronti,191
3917,Αχινός,Achinos,191
3918,Αχλαδοχώρι,Achladochori,191
3919,Βισαλτία,Visaltia,191
3920,Εμμανουήλ Παππάς,Emmanouil Pappas,191
3921,Ηρακλειά,Irakleia,191
3922,Κερκίνη,Kerkini,191
3923,Κορμίστα,Kormista,191
3924,Λευκώνας,Lefkonas,191
3925,Κάτω Μητρούσι,Kato Mitrousi,191
3926,Νέα Ζίχνη,Nea Zichni,191
3927,Νιγρίτα,Nigrita,191
3928,Ορεινή,Oreini,191
3929,Πετρίτσι,Petritsi,191
3930,Προμαχώνας,Promachonas,191
3931,Πρώτη,Proti,191
3932,Ροδολίβος,Rodolivos,191
3933,Σέρρες,Serres,191
3934,Σιδηρόκαστρο,Sidirokastro,191
3935,Σκοτούσσα,Skotoussa,191
3936,Σκούταρι,Skoutari,191
3937,Στρυμώνας,Strimonas,191
3938,Στρυμονικό,Strimoniko,191
3939,Τράγιλος,Tragilos,191
3940,Αιθήκοι,Aithikoi,192
3941,Ασπροπόταμος,Aspropotamos,192
3942,Βασιλική,Vasiliki,192
3943,Γόμφοι,Gomfoi,192
3944,Εστιαιώτιδα,Estiaiotida,192
3945,Καλαμπάκα,Kalampaka,192
3946,Καλλίδενδρο,Kallidendro,192
3947,Καστανιά,Kastania,192
3948,Κλεινοβός,Kleinovos,192
3949,Κόζιακας,Koziakas,192
3950,Μαλακάσι,Malakasi,192
3951,Μεγάλα Καλύβια,Megala Kalivia,192
3952,Μυρόφυλλο,Mirofillo,192
3953,Νεράιδα,Neraida,192
3954,Οιχαλίας,Ichalias,192
3955,Παληόκαστρο,Paliokastro,192
3956,Παραληθαίοι,Paralithaioi,192
3957,Πελλιναίο,Pellinaio,192
3958,Πιάλεια,Pialeia,192
3959,Πύλη,Pili,192
3960,Πυνδαίο,Pindaio,192
3961,Τρίκαλα,Trikala,192
3962,Τυμφαίος,Timfaios,192
3963,Φαλώρεια,Faloreia,192
3964,Φαρκαδόνα,Farkadona,192
3965,Χασιά,Chasia,192
3966,Άγιος Γεώργιος Τυμφρήστου,Agios Georgios Timfristou,193
3967,Άγιος Κωνσταντίνος,Agios Konstantinos,193
3968,Αμφίκλεια,Amfikleia,193
3969,Αταλάντη,Atalanti,193
3970,Γοργοπόταμος,Gorgopotamos,193
3971,Δαφνούσες,Dafnouses,193
3972,Δομοκός,Domokos,193
3973,Ελάτεια,Elateia,193
3974,Εχιναίων,Εchineon,193
3975,Θεσσαλιώτιδα,Thessaliotida,193
3976,Καμένα Βούρλα,Kamena Vourla,193
3977,Λαμία,Lamia,193
3978,Λειανοκλάδι,Leianokladi,193
3979,Μακρακώμη,Makrakomi,193
3980,Μαλεσίνης,Μalesinis,193
3981,Μώλος,Molos,193
3982,Ξυνιάδα,Xiniada,193
3983,Οπούντα,Opounta,193
3984,Παύλιανη,Pavliani,193
3985,Πελασγία,Pelasgia,193
3986,Σπερχειάδα,Spercheiada,193
3987,Στυλίδα,Stilida,193
3988,Τιθορέα,Tithorea,193
3989,Τυμφρηστός,Timfristos,193
3990,Υπάτη,Ipati,193
3991,Αετός,Aetos,194
3992,Αμύνταιο,Amintaio,194
3993,Βαρικό,Variko,194
3994,Κάτω Κλεινές,Kato Kleines,194
3995,Κρυσταλοπηγή,Kristalopigi,194
3996,Λέχοβο,Lechovo,194
3997,Μελίτη,Meliti,194
3998,Νυμφαίο,Nimfaio,194
3999,Πέρασμα,Perasma,194
4000,Πρέσπες,Prespes,194
4001,Φιλώτας,Filotas,194
4002,Φλώρινα,Florina,194
4003,Άμφισσα,Amfissa,195
4004,Βαρδούσιοι,Vardousioi,195
4005,Γαλαξίδι,Galaxidi,195
4006,Γραβιά,Gravia,195
4007,Δελφοί,Delfoi,195
4008,Δεσφίνα,Desfina,195
4009,Ευπάλιο,Efpalio,195
4010,Ιτέα,Itea,195
4011,Κάλλιας,Kallias,195
4012,Λιδορίκι,Lidoriki,195
4013,Παρνασσός,Parnassos,195
4014,Τολόφωνο,Tolofono,195
4015,Ανθεμούντας,Anthemountas,196
4016,Αρναία,Arnaia,196
4017,Ζερβοχώρια,Zervochoria,196
4018,Καλλικράτεια,Kallikrateia,196
4019,Κασσάνδρα,Kassandra,196
4020,Μουδανιά,Moudania,196
4021,Ορμύλια,Ormilia,196
4022,Παλλήνη,Pallini,196
4023,Παναγιά,Panagia,196
4024,Πολύγυρος,Poligiros,196
4025,Σιθωνία,Sithonia,196
4026,Σταγείρων - Ακάνθου,Stagiron - Akanthou,196
4027,Τορώνη,Toroni,196
4028,Τριγλία,Triglia,196
4029,Ακρωτήρι,Akrotiri,197
4030,Ανατολικος Σέλινος,Easts Selinos,197
4031,Αρμενοί,Armenoi,197
4032,Ασή Γωνιά,Asi Gonia,197
4033,Βάμος,Vamos,197
4034,Βουκολιές,Voukolies,197
4035,Γαύδος,Gavdos,197
4036,Γεωργιούπολη,Georgioupoli,197
4037,Ελ. Βενιζέλος,El. Venizelos,197
4038,Θέρισος,Therisos,197
4039,Ινναχώρι,Innachori,197
4040,Κάντανος,Kantanos,197
4041,Κεράμια,Keramia,197
4042,Κίσσαμος,Kissamos,197
4043,Κολυμβάρι,Kolimvari,197
4044,Κρυονερίδα,Krionerida,197
4045,Μουσούροι,Mousouroi,197
4046,Μυθήμνη,Mithimni,197
4047,Νέα Κυδωνία,Nea Kidonia,197
4048,Πελεκάνος,Pelekanos,197
4049,Πλατανιάς,Platanias,197
4050,Χανιά,Chania,197
4051,Σούδα,Souda,197
4052,Σφακιά,Sfakia,197
4053,Φρέ,Fre,197
4060,Οινούσσες,Oinousses,198
4063,Ψαρά,Psara,198
4501,Λάρνακα,Larnaca,301
4800,Λεμεσός,Limassol,301
4801,Λευκωσία,Nicosia,301
4803,Πάφος,Paphos,301
4805,Αμμόχωστος,Famagusta,301
6001,Άγιος Ελευθέριος - Προμπονά - Ριζούπολη,Agios Eleftherios - Probona - Rizoupoli,100
6002,Αμπελόκηποι - Πεντάγωνο,Ampelokipoi - Pentagon,100
6003,Άνω Πατήσια,Ano Patisia,100
6004,Αττική,Attiki,100
6005,Γκάζι - Μεταξουργείο - Βοτανικός,Gazi - Metaxourgio - Votanikos,100
6006,Γκύζη - Πεδίον Άρεως,Gizi - Pedion Areos,100
6007,Εξάρχεια - Νεάπολη,Exarchia - Neapoli,100
6008,Ιστορικό Κέντρο,Historic Center,100
6009,Κολωνάκι - Λυκαβηττός,Kolonaki - Likavitos,100
6010,Κολωνός - Κολοκυνθούς,Kolonos - Kolokinthous,100
6011,Κουκάκι - Μακρυγιάννη,Koukaki - Makrigianni,100
6012,Μετς - Καλλιμάρμαρο,Mets - Kalimarmaro,100
6013,Παγκράτι,Pagkrati,100
6014,Πολύγωνο - Τουρκοβούνια,Poligono - Tourkovounia,100
6015,Σεπόλια - Σκουζέ,Sepolia - Skouze,100
7378,Κέντρο,Center,108
10291,Βυζάντιο,Vizantio,108
10293,Δόξα,Doxa,108
10294,Καμάρα,Kamara,108
10297,Λιμάνι,Limani,108
10301,Παλαιός Σιδηροδρομικός Σταθμός,Palaios Sidirodromikos Stathmos,108
10304,Ξηροκρήνη,Xirokrini,108
108216,Τετραχώρι,Tetrachori,165
118174,Λεγρενά,Legrena,107
124103,Ρόδος,Rhodes,158
124112,Κως,Kos,158
124114,Κάρπαθος,Karpathos,158
124173,Σαντορίνη,Santorini,176
124183,Τήνος,Tinos,176
124190,Άνδρος,Andros,176
124192,Σύρος,Syros,176
124209,Σάμος,Samos,190
124217,Ικαρία,Ikaria,190
124221,Χίος,Chios,198
124230,Λευκάδα,Lefkada,181
124242,Κεφαλονιά,Kefalonia,172
124274,Κέρκυρα,Corfu,171
126511,Τσαρίτσανη,Tsaritsani,178
126804,Ζωνιανά,Zoniana,188
126975,Βραχάσι,Vrachasi,179
329549,Ασία - Υπόλοιπο,Rest of Asia,400
329550,Αμερική - Υπόλοιπο,Rest of The Americas,400
329551,Λοιπές χώρες,Remaining countries,400
